[
  {
    "id": 1,
    "make": "Mercedes-Benz",
    "model": "S-Class",
    "year": 1994
  },
  {
    "id": 2,
    "make": "Mercedes-Benz",
    "model": "S-Class",
    "year": 2021
  },
  {
    "id": 3,
    "make": "Honda",
    "model": "Accord",
    "year": 1992
  },
  {
    "id": 4,
    "make": "Volkswagen",
    "model": "Beetle",
    "year": 2012
  },
  {
    "id": 5,
    "make": "Toyota",
    "model": "Camry",
    "year": 2001
  },
  {
    "id": 6,
    "make": "Chevrolet",
    "model": "Cavalier",
    "year": 2005
  },
  {
    "id": 7,
    "make": "Ford",
    "model": "Escape",
    "year": 2001
  },
  {
    "id": 8,
    "make": "Jeep",
    "model": "Grand Cherokee",
    "year": 1993
  },
  {
    "id": 9,
    "make": "Mitsubishi",
    "model": "Lancer",
    "year": 2017
  },
  {
    "id": 10,
    "make": "Toyota",
    "model": "Prius",
    "year": 2001
  },
  {
    "id": 11,
    "make": "Chevrolet",
    "model": "Suburban",
    "year": 2015
  }
]